.. _unstructured:

Unstructured grids
==================

Unstructured grids or How I Learned to Stop Worrying and Love the Chaos
-----------------------------------------------------------------------

    All hope abandon ye who enter here.
        


